{
  "project_info": {
    "project_number": "1001883981607",
    "firebase_url": "https://earthquake-alert-41c17.firebaseio.com",
    "project_id": "earthquake-alert-41c17",
    "storage_bucket": "earthquake-alert-41c17.appspot.com"
  },
  "client": [
    {
      "client_info": {
        "mobilesdk_app_id": "1:1001883981607:android:f2d4e7359d33b2295afb02",
        "android_client_info": {
          "package_name": "com.avalinejad.earthquake"
        }
      },
      "oauth_client": [
        {
          "client_id": "1001883981607-j62s8j3vv9jcbqe1dalq5e55ngu6qg1h.apps.googleusercontent.com",
          "client_type": 1,
          "android_info": {
            "package_name": "com.avalinejad.earthquake",
            "certificate_hash": "6186b4726db527e16ac07ffeed344199f9ee6b28"
          }
        },
        {
          "client_id": "1001883981607-gg3uv58utdkkg7eesbs8matgp651mrin.apps.googleusercontent.com",
          "client_type": 3
        }
      ],
      "api_key": [
        {
          "current_key": "AIzaSyCuDuAxJ39vH0-o9YjttkQmx_MvCWrF3Lk"
        }
      ],
      "services": {
        "appinvite_service": {
          "other_platform_oauth_client": [
            {
              "client_id": "1001883981607-gg3uv58utdkkg7eesbs8matgp651mrin.apps.googleusercontent.com",
              "client_type": 3
            }
          ]
        }
      }
    }
  ],
  "configuration_version": "1"
}